Name,Sex,AgeClass,BodyweightKg,WeightClassKg,Division,Equipment,Event,Squat1Kg,Squat2Kg,Squat3Kg,Squat4Kg,Best3SquatKg,Bench1Kg,Bench2Kg,Bench3Kg,Bench4Kg,Best3BenchKg,Deadlift1Kg,Deadlift2Kg,Deadlift3Kg,Deadlift4Kg,Best3DeadliftKg,TotalKg,Place,Country
Rebecca Ritchie,F,24-39,50.3,52,F-O,Wraps,SBD,85,92.5,-100,,92.5,45,50,52.5,,52.5,120,127.5,130,,130,275,1,Scotland
Sylwia Stpie,F,24-39,59.3,60,F-O,Wraps,SBD,105,110,115,,115,45,50,55,,55,115,125,-135,,125,295,1,Scotland
Becky Hickman,F,24-39,59.75,60,F-O,Wraps,SBD,100,110,-120,,110,50,-55,-60,,50,110,120,130,,130,290,2,Scotland
Diane Day,F,24-39,64.25,67.5,F-O,Wraps,SBD,90,100,-110,,100,47.5,55,-57.5,,55,115,125,132.5,,132.5,287.5,1,Scotland
Kara Shaw,F,24-39,66.5,67.5,F-O,Wraps,SBD,80,85,-90,,85,50,52.5,55,,55,117.5,122.5,125,,125,265,2,Scotland
Joanne Caldwell,F,45-49,73.9,75,F-M2,Wraps,SBD,-125,125,-135,,125,90,97.5,100,,100,150,165,-181,,165,390,1,Scotland
Elizabeth Elliott,F,24-39,74.5,75,F-O,Wraps,SBD,90,95,100,,100,60,65,-67.5,,65,125,135,142.5,,142.5,307.5,1,Scotland
Carol McLean,F,40-44,82.1,82.5,F-M1,Wraps,SBD,127.5,137.5,142.5,,142.5,55,-60,-60,,55,150,-160,,,150,347.5,1,Scotland
Emma Jane Smith,F,24-39,81.4,82.5,F-O,Wraps,SBD,150,160,170,,170,-67.5,67.5,-75,,67.5,155,165,-172.5,,165,402.5,1,Scotland
Sinead Rooney,F,24-39,82.43,82.5,F-O,Wraps,SBD,125,132.5,-137.5,,132.5,70,72.5,-75,,72.5,135,142.5,150,,150,355,2,Scotland
Mhairi Shields,F,24-39,78.15,82.5,F-O,Wraps,SBD,120,130,135,,135,60,65,70,,70,115,122.5,127.5,,127.5,332.5,3,Scotland
Gemma Young,F,24-39,82.05,82.5,F-O,Wraps,SBD,120,125,-130,,125,57.5,-60,-60,,57.5,125,135,140,,140,322.5,4,Scotland
Amy Elizabeth Mackenzie,F,18-19,88.55,90,F-T3,Wraps,SBD,115,-125,-125,,115,-65,65,-67.5,,65,105,-115,-115,,105,285,1,Scotland
Lisa Simmonette,F,24-39,101.5,110,F-O,Wraps,SBD,-130,130,135,,135,90,95,-100,,95,155,170,180,,180,410,1,Scotland
Stefanie Malinowski,F,24-39,106.7,110,F-O,Wraps,SBD,105,115,130,,130,50,55,60,,60,115,125,140,,140,330,1,Scotland
Liam Calder,M,24-39,88.35,90,M-O,Wraps,SBD,250,-260,260,,260,180,-190,-190,,180,,,,,,,DQ,Scotland
Scott Pollock,M,24-39,87.95,90,M-O,Wraps,SBD,-240,240,260,,260,170,180,185,,185,270,290,300,,300,745,1,Scotland
Robbie Stewart,M,24-39,88.6,90,M-O,Wraps,SBD,210,230,242.5,,242.5,150,-170,170,,170,275,305,-315,,305,717.5,2,Scotland
Chris Watson,M,24-39,88.6,90,M-O,Wraps,SBD,210,225,235,,235,135,140,145,,145,250,265,272.5,,272.5,652.5,3,Scotland
Adrian McKinnon,M,24-39,89.9,90,M-O,Wraps,SBD,190,210,-225,,210,100,,,,100,230,240,-247.5,,240,550,4,Scotland
Andrew McGuinness,M,24-39,89,90,M-O,Wraps,SBD,185,-192.5,192.5,,192.5,-105,105,110,,110,175,185,200,,200,502.5,5,Scotland
Martyn Keenan,M,24-39,99.25,100,M-O,Wraps,SBD,190,215,227.5,,227.5,100,110,120,,120,220,232.5,242.5,,242.5,590,1,Scotland
John Joe Gallagher,M,24-39,95.25,100,M-O,Wraps,SBD,187.5,200,207.5,,207.5,122.5,-130,-130,,122.5,217.5,227.5,-240,,227.5,557.5,2,Scotland
Robert Caldwell,M,50-54,105.55,110,M-M3,Wraps,SBD,220,230,232.5,,232.5,160,167.5,-172.5,,167.5,230,240,245,,245,645,1,Scotland
Andrew Flavell,M,50-54,102.25,110,M-M3,Wraps,SBD,190,215,-227.5,,215,110,120,-130,,120,190,220,225,,225,560,2,Scotland
Bob Hopkinson,M,24-39,105.3,110,M-O,Wraps,SBD,-260,-270,270,,270,170,175,-180,,175,270,282.5,-295,,282.5,727.5,1,Scotland
Danyle Ferguson,M,24-39,109.95,110,M-O,Wraps,SBD,210,225,235,,235,145,150,155,,155,245,262.5,267.5,,267.5,657.5,2,Scotland
Neil Gren,M,24-39,108.15,110,M-O,Wraps,SBD,200,210,220,,220,125,-132.5,132.5,,132.5,240,-252.5,-252.5,,240,592.5,3,Scotland
Stephen Landsborough,M,40-44,117.1,125,M-M1,Wraps,SBD,190,-200,-200,,190,110,-120,-120,,110,230,-240,240,,240,540,1,Scotland
Alister Al Reid,M,45-49,124.05,125,M-M2,Wraps,SBD,197.5,210,220,,220,147.5,155,160,,160,222.5,232.5,240,,240,620,1,Scotland
Louis Kuhn,M,45-49,124.45,125,M-M2,Wraps,SBD,190,-212.5,-212.5,,190,140,150,160,,160,222.5,240,-245,,240,590,2,Scotland
Alan Turner,M,60-64,115.2,125,M-M5,Wraps,SBD,190,200,210,,210,125,135,140,,140,220,230,240,,240,590,1,Scotland
Michael Spink,M,24-39,111.15,125,M-O,Wraps,SBD,315,330,342.5,,342.5,195,210,-220,,210,290,-315,-315,,290,842.5,1,Scotland
Darren Leggatt,M,24-39,124.3,125,M-O,Wraps,SBD,285,-302.5,302.5,,302.5,-185,-185,185,,185,255,275,-290,,275,762.5,2,Scotland
John Sutherland,M,24-39,122,125,M-O,Wraps,SBD,-230,-230,240,,240,165,172.5,177.5,,177.5,230,245,252.5,,252.5,670,3,Scotland
Ross Kincaid,M,24-39,117.65,125,M-O,Wraps,SBD,210,225,232.5,,232.5,142.5,150,155,,155,210,230,-237.5,,230,617.5,4,Scotland
William Barnetson,M,24-39,121.1,125,M-O,Wraps,SBD,-180,180,-200,,180,130,140,-145,,140,260,-265,,,260,580,5,Scotland
Richard Harvey,M,24-39,122.55,125,M-O,Wraps,SBD,-170,180,190,,190,90,100,110,,110,200,217.5,230,,230,530,6,Scotland
Mark Macqueen,M,24-39,134.55,140,M-O,Wraps,SBD,-330,330,365,,365,187.5,197.5,202.5,,202.5,315,340,-352.5,,340,907.5,1,Scotland
Kyle Mackinnon,M,24-39,136.3,140,M-O,Wraps,SBD,200,210,225,,225,110,125,-135,,125,240,-260,-260,,240,590,2,Scotland
Thomas Brown,M,24-39,155.75,140+,M-O,Wraps,SBD,230,260,275,,275,170,182.5,185,,185,,,,,,,DQ,Scotland
Nick Whitecross,M,24-39,144.3,140+,M-O,Wraps,SBD,275,285,-295,,285,230,-240,240,,240,265,280,-290,,280,805,1,Scotland
Torin Pearce,M,20-23,89.25,90,M-J-E,Multi-ply,SBD,165,172.5,180,,180,100,-105,,,100,175,180,185,,185,465,1,Scotland
Derek Alexander,M,40-44,99.7,100,M-M1-E,Multi-ply,SBD,285,300,,,300,200,210,,,210,285,-300,-300,,285,795,1,Scotland
Ronald Simpson,M,70-74,104.15,110,M-M7-E,Multi-ply,SBD,160,172.5,180,,180,75,,,,75,170,185,-200,,185,440,1,Scotland
Martin Tait,M,24-39,108.65,110,M-O-E,Multi-ply,SBD,330,355,370,,370,215,222.5,227.5,,227.5,280,-302.5,302.5,,302.5,900,1,Scotland
Patrick McCloskey #1,M,24-39,103.5,110,M-O-E,Multi-ply,SBD,295,302.5,-310,,302.5,165,-170,,,165,250,262.5,272.5,,272.5,740,2,Scotland
Pardeep Signh Sadhra,M,40-44,123.95,125,M-M1-E,Multi-ply,SBD,220,235,245,,245,-150,-155,-160,,,230,247.5,255,,255,,DQ,Scotland
John Pollock #1,M,40-44,120.5,125,M-M1-E,Multi-ply,SBD,330,350,-370,,350,-195,195,205,,205,320,-335,335,,335,890,1,Scotland
Neil Elliott,M,45-49,121.25,125,M-M2-E,Multi-ply,SBD,300,-320,,,300,262.5,-267.5,-270,,262.5,290,-300,-300,,290,852.5,1,Scotland
Darren McCarroll,M,50-54,113.9,125,M-M3-E,Multi-ply,SBD,-300,300,315,,315,150,,,,150,250,-270,,,250,715,1,Scotland
Thomas Graham,M,24-39,119.55,125,M-O-E,Multi-ply,SBD,-300,300,-330,,300,215,-222.5,,,215,250,270,280,,280,795,1,Scotland
Susan Turner,F,50-54,67.25,67.5,F-M3,Raw,B,,,,,,65,70,75,,75,,,,,,75,1,Scotland
James Ingram,M,40-44,86.15,90,M-M1,Raw,BD,,,,,,125,132.5,-140,,132.5,190,217.5,-230,,217.5,350,1,Scotland
Russ Bain,M,45-49,84.85,90,M-M2-E,Multi-ply,D,,,,,,,,,,,275,285,-297.5,,285,285,1,Scotland
