Name,Country,Sex,Division,WeightClassKg,BirthDate,BodyweightKg,Squat1Kg,Squat2Kg,Squat3Kg,Squat4Kg,Best3SquatKg,Bench1Kg,Bench2Kg,Bench3Kg,Bench4Kg,Best3BenchKg,Deadlift1Kg,Deadlift2Kg,Deadlift3Kg,Deadlift4Kg,Best3DeadliftKg,TotalKg,Equipment,Place,Event
Ana Gonsalez,Mexico,F,Masters 40-44,48,1965-01-01,47.35,115,122.5,-127.5,,122.5,60,65,-70,,65,130,142.5,150,,150,337.5,Single-ply,1,SBD
Haidi Chaparro,Mexico,F,Juniors 20-23,56,1986-09-23,55.2,105,-120,-120,,105,40,45,-47.5,,45,100,110,115,,115,265,Single-ply,1,SBD
Dora Puente,Mexico,F,Masters 45-49,52,1957-10-01,52,-90,100,102.5,,102.5,62.5,67.5,-70,,67.5,115,125,130,,130,300,Single-ply,1,SBD
Allison Hough,UK,F,Masters 40-44,56,1966-04-29,55.85,115,120,125,,125,72.5,75,-77.5,,75,120,130,135,,135,335,Single-ply,1,SBD
Brenda Aguirre,Mexico,F,Open,60,1979-05-31,59,170,180,185,,185,90,102.5,105,,105,165,180,190,,190,480,Single-ply,1,SBD
Tanja van Huizen,Netherlands,F,Teen 15-19,67.5,1988-01-05,64.2,100,110,117.5,125,117.5,-60,-70,-70,,,,,,,,,Single-ply,DQ,SBD
Martha Rodriguez,Mexico,F,Open,67.5,1978-05-10,62.8,130,137.5,-142.5,,137.5,65,75,77.5,,77.5,140,-150,150,,150,365,Single-ply,1,SBD
Maria Perez,Mexico,F,Open,67.5,1960-07-02,62.8,80,110,130,,130,70,-85,87.5,90,87.5,100,120,140,,140,357.5,Single-ply,2,SBD
Sonja Herzig,Austria,F,Open,75,1969-09-28,70.5,-80,90,100,,100,55,60,-65,,60,115,125,130,,130,290,Single-ply,2,SBD
Alexandra Matus,Mexico,F,Open,75,1977-07-19,74.85,175,195,200.5,,200.5,70,80,-85,,80,190,-210,-215,,190,470.5,Single-ply,1,SBD
Lucy-Aileen Kruger,Germany,F,Masters 40-44,75,1963-05-29,74.75,-150,150,170,,170,100,110,115,,115,145,165,182.5,,182.5,467.5,Single-ply,1,SBD
Justin Gavigan,Ireland,M,Open,56,1981-03-01,55.55,100,105,110,,110,80,85,-90,,85,125,140,160,180.5,160,355,Single-ply,1,SBD
Adam Jones #9,UK,M,Teen 15-19,60,1989-02-19,59.75,135,-145,145,,145,85,90,-92.5,,90,140,152.5,157.5,,157.5,392.5,Single-ply,1,SBD
Wilhelm Guido,Mexico,M,Open,60,1974-03-04,58.4,180,-195,195,,195,100,115,-122.5,,115,200,215,222.5,,222.5,532.5,Single-ply,1,SBD
Heriberto Vadivia,Mexico,M,Teen 15-19,67.5,1989-02-17,63.95,185,-200,202.5,,202.5,100,107.5,-112.5,,107.5,180,202.5,210,,210,520,Single-ply,1,SBD
Charlie Power,Ireland,M,Juniors 20-23,67.5,1986-03-27,67.2,140,150,160,,160,105,-115,115,,115,145,165,-180,,165,440,Single-ply,2,SBD
Daniel Persch,Germany,M,Juniors 20-23,67.5,1984-09-10,67.05,145,165,167.5,,167.5,80,95,-102.5,,95,150,170,177.5,,177.5,440,Single-ply,1,SBD
Christian Navarro #2,Mexico,M,Open,67.5,1976-11-02,64,180,-187.5,-187.5,,180,-130,130,140,,140,150,160,190,,190,510,Single-ply,1,SBD
Ian Gavigan,Ireland,M,Open,67.5,1976-11-15,67.5,135,145,155,,155,90,-97.5,-97.5,,90,190,200,210,,210,455,Single-ply,2,SBD
Zak Wilcox,UK,M,Teen 15-19,75,1990-10-23,69.55,100,110,115,,115,60,-65,65,,65,120,125,130,,130,310,Single-ply,2,SBD
Rene Bosma,Netherlands,M,Teen 15-19,75,1990-04-11,68.6,140,150,-160,,150,85,95,100,,100,140,150,155,,155,405,Single-ply,1,SBD
Sergio Lopez,Mexico,M,Juniors 20-23,75,1986-01-09,71.9,180,220,-232.5,,220,130,140,-150,,140,185,205,220.5,,220.5,580.5,Single-ply,1,SBD
Ricardo Vicenteño,Mexico,M,Juniors 20-23,75,1983-07-23,73.95,150,180,205,,205,90,125,-135,,125,200,215,225.5,230,225.5,555.5,Single-ply,2,SBD
Lee Hough,UK,M,Open,75,,74.3,170,180,-190,,180,110,115,120,,120,180,190,-192.5,,190,490,Single-ply,5,SBD
Christian Hughes,UK,M,Open,75,1978-10-17,74.4,190,215,222.5,,222.5,120,130,-142.5,,130,-220,230,-253,,230,582.5,Single-ply,2,SBD
Mike King,UK,M,Open,75,1969-01-06,72.6,200,220,-225,,220,120,127.5,132.5,,132.5,200,212.5,-217.5,,212.5,565,Single-ply,3,SBD
David Martin #6,Ireland,M,Open,75,1976-03-16,74,155,160,-165,,160,115,-120,120,,120,210,220,225,,225,505,Single-ply,4,SBD
Mario Hernandez,Mexico,M,Open,75,1968-10-28,74.8,235,250,-255,,250,140,-150,-150,,140,205,215,220,,220,610,Single-ply,1,SBD
Bernard Large,Germany,M,Masters 40-44,75,1963-11-08,74.9,170,185,-195,,185,115,122.5,-127.5,,122.5,165,175,-177.5,,175,482.5,Single-ply,1,SBD
Maurice Green,UK,M,Masters 45-49,75,1959-08-31,74.6,-190,210,236,,236,135,142.5,-150,,142.5,200,222.5,,,222.5,601,Single-ply,1,SBD
Thomas Warby,Ireland,M,Masters 50-54,75,1952-10-04,69.65,195,212.5,217.5,,217.5,135,137.5,145,,145,215,225,230,,230,592.5,Single-ply,1,SBD
Calin Eschenasy,Germany,M,Masters 50-54,75,1955-12-15,74.6,210,-230,-230,,210,-135,135,140,,140,210,-230,-232.5,,210,560,Single-ply,2,SBD
Enrique Castaneda,Mexico,M,Masters 60-64,75,1945-04-07,72.95,100,115,125,,125,80,85,90,,90,125,140,150,,150,365,Single-ply,1,SBD
Alfredo Garcia,Mexico,M,Masters 65-69,75,1941-03-04,70.9,130,-145,-150,,130,-100,105,-122.5,,105,130,145,-152.5,,145,380,Single-ply,1,SBD
Thomas Dillon,Ireland,M,Masters 60-64,82.5,1943-05-14,81.3,195.5,-205,210,,210,142.5,147.5,-150,,147.5,200,220,235,,235,592.5,Single-ply,1,SBD
Alex Wheatman,UK,M,Juniors 20-23,82.5,1983-02-27,78.85,200,220,-240,,220,120,-130,-130,,120,200,220,230,,230,570,Single-ply,1,SBD
Justin Hurley #3,UK,M,Open,82.5,1976-06-19,81.95,340,360,-375,,360,190,-205,-205,,190,270,-285,-302.5,,270,820,Single-ply,1,SBD
Alexander Chaloupka,Austria,M,Open,82.5,1976-06-28,78.45,-170,180,-195,,180,120,130,140,,140,160,170,180,,180,500,Single-ply,4,SBD
Saul Balderrama,Mexico,M,Open,82.5,1971-07-22,81.75,-240,-240,240,,240,140,160,-172.5,,160,220,-235,-235,,220,620,Single-ply,3,SBD
Manuel Lucero,Mexico,M,Open,82.5,1975-03-12,82.2,-220,-220,230,,230,140,150,-160,,150,220,240,250,,250,630,Single-ply,2,SBD
JJ Dunne,Ireland,M,Masters 40-44,82.5,1962-10-01,82.5,240,-250,-255,,240,145,152.5,157.5,,157.5,255,265,272.5,,272.5,670,Single-ply,1,SBD
Rocco Gopfahrt,Germany,M,Masters 40-44,82.5,1965-05-11,81.7,232.5,-240,-240,,232.5,-145,145,-150,,145,-125,125,,,125,502.5,Single-ply,3,SBD
Andrew Shipman,UK,M,Masters 40-44,82.5,1962-11-27,82,215,-235,-245,,215,150,160,-170,,160,230,250,-265,,250,625,Single-ply,2,SBD
Bernard Morgan,Ireland,M,Masters 45-49,82.5,1958-06-04,82,250,260,265,,265,150,-160,165,,165,-230,240,-250,,240,670,Single-ply,2,SBD
Coert Hoppenbrouwers,Netherlands,M,Masters 45-49,82.5,1958-02-03,81.3,140,-265,265,,265,155,165,-170,,165,245,262.5,-272.5,,262.5,692.5,Single-ply,1,SBD
Dave Foster,Ireland,M,Teen 15-19,90,1987-01-29,89.95,190,200,207.5,,207.5,140,150,-155,,150,205,215,-230,,215,572.5,Single-ply,1,SBD
Christopher Donoghue,UK,M,Juniors 20-23,90,1986-10-09,87.2,-185,-185,185,,185,120,-130,130,,130,180,200,210,,210,525,Single-ply,3,SBD
Mario Purkarthofer,Austria,M,Juniors 20-23,90,1985-03-08,84.9,250,-265,-265,,250,-155,155,160,,160,210,220,-225,,220,630,Single-ply,1,SBD
David Muñoz,Mexico,M,Juniors 20-23,90,1985-03-14,86.95,180,190,205,,205,130,-140,140,,140,185,195,205,,205,550,Single-ply,2,SBD
Gerard Tierney,Ireland,M,Masters 40-44,90,1966-04-30,89.95,250,260,-270,,260,190,197.5,202.5,,202.5,285,295,-302.5,,295,757.5,Single-ply,2,SBD
Peter Malfa,Germany,M,Masters 40-44,90,1963-08-15,,260,275,-285.5,,275,-145,-145,,,,,,,,,,Single-ply,DQ,SBD
Dean Drury,UK,M,Masters 40-44,90,1963-12-27,88.05,280,302.5,312.5,,312.5,165,172.5,180,,180,-265,270,-280,,270,762.5,Single-ply,1,SBD
Victor Gomez,Mexico,M,Masters 45-49,90,1960-06-07,89.3,275,300,320,,320,180,200,-210,,200,275,-300,-300,,275,795,Single-ply,1,SBD
Detlef Brill,Germany,M,Masters 45-49,90,1961-01-13,84.15,-175,175,-195,,175,145,-160,-160,,145,200,210,217.5,,217.5,537.5,Single-ply,2,SBD
Ben Hartigan,Ireland,M,Masters 50-54,90,1956-02-07,89.85,220,235,250,,250,-130,130,-145,,130,-200,200,-225,,200,580,Single-ply,1,SBD
Josh Hill,UK,M,Teen 15-19,100,1987-03-17,95.1,260,275,-290,,275,-180,200,-215,,200,285,-300,-300,,285,760,Single-ply,1,SBD
Phil Beniston,UK,M,Masters 40-44,100,1963-06-02,93.45,260,-280,-285,,260,190,-200,202.5,,202.5,235,-250,250,,250,712.5,Single-ply,1,SBD
Walter Becka,Austria,M,Masters 40-44,100,1962-10-12,99.5,150,160,170,,170,125,130,135,,135,165,180,-190,,180,485,Single-ply,2,SBD
Peter Berghmans,Netherlands,M,Masters 50-54,100,1954-06-15,92.5,200,220,235,,235,120,-127.5,127.5,,127.5,210,230,-245,,230,592.5,Single-ply,1,SBD
Ken Williams #1,UK,M,Masters 55-59,100,1947-07-14,95.15,200,220,230,,230,135,140,145,,145,200,225,,,225,600,Single-ply,1,SBD
Bernard Delaney,Ireland,M,Open,90,1973-11-28,89.95,270,290,300,,300,235,245,-255,,245,280,300,307.5,,307.5,852.5,Single-ply,1,SBD
Pat McNamara,Ireland,M,Open,90,1980-04-16,89.4,325,335,-345,,335,190,-197.5,-197.5,,190,275,-285,,,275,800,Single-ply,3,SBD
Phil Watkins,UK,M,Open,90,1968-10-22,89.35,-305,305,-330,,305,182.5,-195,-195,,182.5,300,-320.5,,,300,787.5,Single-ply,4,SBD
Eloy Ramos,Mexico,M,Open,90,1973-01-14,89.85,290,305,-315,,305,-190,195,-205,,195,270,-285,,,270,770,Single-ply,5,SBD
Javier Sostres,Mexico,M,Open,90,1970-01-20,90,290,310,-320,,310,180,-192.5,-195,,180,230,-270,-270,,230,720,Single-ply,7,SBD
Oswaldo Aguirre,Mexico,M,Open,90,1976-02-01,89.85,310,325,335,,335,190,-202.5,202.5,,202.5,290,302.5,-315,,302.5,840,Single-ply,2,SBD
Paul Murphy,UK,M,Open,90,1968-09-17,87.6,-305,305,-330,,305,170,180,-187.5,,180,280,-300,-302.5,,280,765,Single-ply,6,SBD
Lukas Wiak,UK,M,Open,90,1982-02-19,88.6,270,-285,-285,,270,185,195,-200,,195,270,-285,-285,,270,735,Single-ply,8,SBD
Elio Taurisano,Germany,M,Open,90,1967-04-25,87.55,230,240,-250,,240,142.5,150,160,,160,240,-255,255,,255,655,Single-ply,9,SBD
Sean Enwright,Ireland,M,Open,100,1980-09-05,97.5,210,225,240,,240,-160,160,167.5,,167.5,220,235,-247.5,,235,642.5,Single-ply,4,SBD
Lee Dennis,UK,M,Open,100,1980-01-05,95.55,-290,-305,-305,,,185,,,,185,,,,,,,Single-ply,DQ,SBD
Robert Bock,Austria,M,Open,100,1980-12-17,98.3,240,255,-265,,255,160,172.5,-180,,172.5,250,255,265,,265,692.5,Single-ply,2,SBD
Roy Pierre,Germany,M,Open,100,1978-01-18,95.25,250,-260,260,,260,190,197.5,200,,200,260,-270,270,,270,730,Single-ply,1,SBD
Micheal Eschie,Germany,M,Open,100,1975-08-22,92.3,240,250,260,,260,145,155,165,,165,230,245,-255,,245,670,Single-ply,3,SBD
Juan Salazar,Mexico,M,Juniors 20-23,110,1983-06-17,108.3,285,310,330,,330,170,195,-210,,195,260,-282.5,282.5,,282.5,807.5,Single-ply,1,SBD
Marcus Griffiths,UK,M,Open,110,1973-07-19,108.2,330,370,,,370,200,210,,,210,305,322.5,-340,,322.5,902.5,Single-ply,2,SBD
Carlos Matus,Mexico,M,Open,110,1971-09-27,107.1,280,300,320,,320,175,185,-190,,185,250,270,-280,,270,775,Single-ply,3,SBD
Alexander Mittag,Germany,M,Open,110,1982-10-12,103.5,270,-295,300,,300,170,-200,-200,,170,240,265,-285,,265,735,Single-ply,4,SBD
Craig Coombes,UK,M,Open,110,1975-09-19,108.55,380,410,420,,420,250,-270,270,,270,280,300,310,,310,1000,Single-ply,1,SBD
Richie Penkert,Ireland,M,Masters 40-44,110,1963-09-09,108.7,270,290,-302.5,,290,160,170,-180,,170,200,,,,200,660,Single-ply,2,SBD
Albert Hoekstra,Netherlands,M,Masters 40-44,110,1964-03-14,107.2,-285,285,305,,305,200,-210,-210,,200,225,240,255,,255,760,Single-ply,1,SBD
Gerhard Holleitner,Austria,M,Masters 45-49,110,1959-06-20,108.35,205,220,,,220,-180,180,-192.5,,180,285,305,332.5,,332.5,732.5,Single-ply,1,SBD
Richard West,UK,M,Masters 45-49,110,1957-11-18,107.85,200,,,,200,180,190,200,,200,200,,,,200,600,Single-ply,2,SBD
Robert Campbell,UK,M,Masters 55-59,110,1949-03-23,105.2,260,275,-280,,275,160,170,175,,175,240,250,-260,,250,700,Single-ply,1,SBD
Francisco Gomez Jr,Mexico,M,Teen 15-19,125,1991-08-29,110.4,225,240,-250,,240,110,-125,125,,125,210,220,-230,,220,585,Single-ply,1,SBD
Rubén Hernández #2,Mexico,M,Open,125,1969-07-05,115.95,275,285,-300,,285,170,180,-182.5,,180,240,,,,240,705,Single-ply,3,SBD
Keith Ellis,UK,M,Open,125,1982-07-29,115,300,325,350,,350,180,190,-200,,190,270,290,-307.5,,290,830,Single-ply,2,SBD
Shaun Davies,UK,M,Open,125,1968-04-01,110.65,340,365,-375,,365,230,245,-250,,245,300,-315,,,300,910,Single-ply,1,SBD
Carlos Quintana,Mexico,M,Open,125,1977-05-14,110.25,260,290,302.5,,302.5,-225,-227.5,-227.5,,,260,290,-302.5,,290,,Single-ply,DQ,SBD
Peter Bongers,Netherlands,M,Masters 40-44,125,,111,300,-320,-320,,300,170,180,-187.5,,180,250,,,,250,730,Single-ply,2,SBD
Ed Fennema,Netherlands,M,Masters 40-44,125,1962-12-03,122.6,300,325,345,,345,190,205,210,,210,280,300,,,300,855,Single-ply,1,SBD
Patrick McNamara #3,Ireland,M,Masters 50-54,125,1956-06-04,115.4,280,300,-320,,300,160,-175,-175,,160,260,275,-300,,275,735,Single-ply,1,SBD
Greg Ashford,UK,M,Open,140,1969-02-24,126.1,260,280,290,,290,195,207.5,-215,,207.5,250,,,,250,747.5,Single-ply,4,SBD
Audrius Grusas,Lithuania,M,Open,140,1981-09-01,137.35,290,300,-310,,300,210,220,,,220,-290,290,-300,,290,810,Single-ply,3,SBD
Frank McGivney,Ireland,M,Open,140,1971-10-25,131.7,-360,360,390,,390,210,220,,,220,260,280,290,,290,900,Single-ply,1,SBD
Jens Pollex,Germany,M,Open,140,1968-06-16,126.1,-300,300,310,,310,190,200,215,,215,280,300,-305,,300,825,Single-ply,2,SBD
Francisco Gomez,Mexico,M,Masters 40-44,140,1963-03-13,125.3,270,-300,300,,300,110,-190,-195,,110,230,275,-285,,275,685,Single-ply,1,SBD
David Carter #1,UK,M,Masters 55-59,140,1947-08-08,132,317.5,-345,345,,345,175,185,-190,,185,310,330,350,,350,880,Single-ply,1,SBD
Robert Thomas,UK,M,Open,140+,1971-03-31,149.4,-270,270,-300,,270,250,-260,-260,,250,200,,,,200,720,Single-ply,1,SBD
Ramon Palomino,Mexico,M,Masters 45-49,140+,1961-02-04,144.15,200,225,245,,245,165,-175,-180,,165,-150,160,,,160,570,Single-ply,2,SBD
Richard Fricker,UK,M,Masters 45-49,140+,1961-03-18,146.65,260,290,320,,320,175,187.5,-195,,187.5,250,272.5,280,,280,787.5,Single-ply,1,SBD
Ana Gonsalez,Mexico,F,Masters 40-44,48,1965-01-01,47.35,,,,,,60,65,-70,,65,,,,,,65,Single-ply,1,B
Britta Schmitt,Germany,F,Masters 45-49,56,1961-04-14,54.25,,,,,,47.5,50,-52.5,,50,,,,,,50,Single-ply,2,B
Dora Puente,Mexico,F,Masters 45-49,56,1957-01-10,53.3,,,,,,60,65,67.5,,67.5,,,,,,67.5,Single-ply,1,B
Toni Hollis,UK,F,Masters 50-54,56,1954-12-18,55.8,,,,,,80,85,87.5,,87.5,,,,,,87.5,Single-ply,1,B
Allison Hough,UK,F,Masters 40-44,60,1966-04-29,57.5,,,,,,72.5,77.5,80,,80,,,,,,80,Single-ply,1,B
Tanja van Huizen,Netherlands,F,Teen 15-19,67.5,,64.95,,,,,,50,-70,-72.5,,50,,,,,,50,Single-ply,1,B
Martha Rodriguez,Mexico,F,Open,67.5,1978-05-10,62.6,,,,,,70,75,-77.5,,75,,,,,,75,Single-ply,1,B
Claudia Rios,Mexico,F,Open,67.5,1970-01-22,64.5,,,,,,65,-70,-70,,65,,,,,,65,Single-ply,2,B
Maria Perez,Mexico,F,Masters 45-49,67.5,1960-07-02,61.75,,,,,,85,95,-100.5,,95,,,,,,95,Single-ply,1,B
Adriana Bialostocki,Germany,F,Open,75,1982-02-05,73.55,,,,,,-85,85,-90,,85,,,,,,85,Single-ply,1,B
Linda Evans,UK,F,Masters 45-49,75,1958-01-15,69.05,,,,,,50,52.5,-55,,52.5,,,,,,52.5,Single-ply,1,B
Maria Uribe,Mexico,F,Masters 55-59,82.5,1947-01-21,82.5,,,,,,40,45,50,,50,,,,,,50,Single-ply,1,B
Richard Tolley,UK,M,Teen 15-19,67.5,1987-03-09,63.8,,,,,,77.5,-82.5,82.5,,82.5,,,,,,82.5,Single-ply,1,B
Sergio Lopez,Mexico,M,Juniors 20-23,75,1986-10-09,71.1,,,,,,130,140,-145,,140,,,,,,140,Single-ply,1,B
Saurabh Campbell,Ireland,M,Juniors 20-23,75,1983-12-26,74.95,,,,,,110,-125,130,,130,,,,,,130,Single-ply,2,B
Christian Navarro #2,Mexico,M,Open,67.5,1976-11-02,63.7,,,,,,130,140,-155,,140,,,,,,140,Single-ply,2,B
Lucas Gijsberten,Poland,M,Open,67.5,1981-03-15,65.4,,,,,,155,-170,170,,170,,,,,,170,Single-ply,1,B
Jaroslam Szmaja,Poland,M,Open,67.5,1990-10-28,65.05,,,,,,95,100,105,,105,,,,,,105,Single-ply,3,B
Paul McIlroy,Ireland,M,Open,75,,72.4,,,,,,130,-140,-147.5,,130,,,,,,130,Single-ply,2,B
Mario Hernandez,Mexico,M,Open,75,1968-10-28,74.95,,,,,,-142.5,142.5,-147.5,,142.5,,,,,,142.5,Single-ply,1,B
Johnathan Ives,UK,M,Open,75,1977-03-14,74.5,,,,,,117.5,125,130,,130,,,,,,130,Single-ply,3,B
Enrique Castaneda,Mexico,M,Masters 60-64,75,1945-04-07,72.9,,,,,,80,85,90,,90,,,,,,90,Single-ply,1,B
Alfredo Garcia,Mexico,M,Masters 65-69,75,1941-03-04,70.95,,,,,,95,102.5,-110,,102.5,,,,,,102.5,Single-ply,1,B
Tomasz Tomczyk,Poland,M,Teen 15-19,82.5,1990-01-04,81.1,,,,,,115,-125,-125,,115,,,,,,115,Single-ply,1,B
Brian Bullman,Ireland,M,Open,82.5,1977-11-05,80.65,,,,,,170,175,177.5,,177.5,,,,,,177.5,Single-ply,1,B
Saul Balderrama,Mexico,M,Open,82.5,1971-07-27,82.5,,,,,,150,165,-172.5,,165,,,,,,165,Single-ply,2,B
Paul Van Merko,Ireland,M,Open,82.5,,81.5,,,,,,150,160,-165,,160,,,,,,160,Single-ply,3,B
Joachim Hoche,Germany,M,Masters 40-44,82.5,1964-01-26,80.8,,,,,,150,160,165,,165,,,,,,165,Single-ply,1,B
Horst Fischer,Germany,M,Masters 45-49,82.5,,80.35,,,,,,122.5,-127.5,-127.5,,122.5,,,,,,122.5,Single-ply,2,B
Coert Hoppenbrouwers,Netherlands,M,Masters 45-49,82.5,1958-02-03,80.3,,,,,,150,160,165,,165,,,,,,165,Single-ply,1,B
Thomas Dillon,Ireland,M,Masters 60-64,82.5,1943-05-14,82.1,,,,,,100,,,,100,,,,,,100,Single-ply,1,B
David Muñoz,Mexico,M,Juniors 20-23,90,1985-03-14,86.6,,,,,,120,-135,135,,135,,,,,,135,Single-ply,1,B
Stephen Robson,Ireland,M,Open,90,1974-09-03,82.8,,,,,,105,110,115,,115,,,,,,115,Single-ply,5,B
Oswaldo Aguirre,Mexico,M,Open,90,1976-02-01,89.95,,,,,,185,195,200,,200,,,,,,200,Single-ply,1,B
Jörg Wiemann,Germany,M,Open,90,,88.15,,,,,,185,190,-200,,190,,,,,,190,Single-ply,2,B
Elias Bouziouris,Germany,M,Open,90,,87.75,,,,,,135,142.5,-150,,142.5,,,,,,142.5,Single-ply,4,B
Thomas Elfener,Germany,M,Open,90,,89.05,,,,,,145,157.5,162.5,,162.5,,,,,,162.5,Single-ply,3,B
Gerard Tierney,Ireland,M,Masters 40-44,90,1966-04-30,89.5,,,,,,-190,190,195.5,,195.5,,,,,,195.5,Single-ply,1,B
Jörg Rödiger,Germany,M,Masters 40-44,90,1966-06-29,85.1,,,,,,140,150,-160,,150,,,,,,150,Single-ply,2,B
Victor Gomez,Mexico,M,Masters 45-49,100,1960-06-07,93.05,,,,,,180,200,-210,,200,,,,,,200,Single-ply,1,B
Detlef Brill,Germany,M,Masters 45-49,90,,84.75,,,,,,145,155,-170,,155,,,,,,155,Single-ply,1,B
David Tickle,UK,M,Masters 50-54,90,1954-02-01,89.35,,,,,,162.5,167.5,172.5,,172.5,,,,,,172.5,Single-ply,2,B
Micheal Winklareth,Germany,M,Masters 50-54,90,1956-07-15,86.65,,,,,,185,190,-195,,190,,,,,,190,Single-ply,1,B
Terry Flood,Ireland,M,Masters 60-64,90,1943-08-28,88.5,,,,,,120,130,-140,,130,,,,,,130,Single-ply,1,B
Dave Foster,Ireland,M,Teen 15-19,100,,90.2,,,,,,140.5,150,-152.5,,150,,,,,,150,Single-ply,1,B
Owen Cafferty,Ireland,M,Juniors 20-23,100,1985-06-03,91.75,,,,,,195,205,-210,,205,,,,,,205,Single-ply,1,B
John Goudy,Ireland,M,Juniors 20-23,100,,96.95,,,,,,140,150,160,,160,,,,,,160,Single-ply,2,B
Sean Enwright,Ireland,M,Open,100,1980-09-05,98.5,,,,,,160,167.5,-175,,167.5,,,,,,167.5,Single-ply,6,B
Robert Bock,Germany,M,Open,100,,97.7,,,,,,165,172.5,-180,,172.5,,,,,,172.5,Single-ply,5,B
Rene Hiecke,Germany,M,Open,100,,97.45,,,,,,-185,-190,200,,200,,,,,,200,Single-ply,4,B
Roy Pierre,Germany,M,Open,100,,95.05,,,,,,190,197.5,200,,200,,,,,,200,Single-ply,2,B
Eloy Ramos,Mexico,M,Open,100,1973-01-14,90.55,,,,,,190,-200,200,,200,,,,,,200,Single-ply,1,B
Javier Sostres,Mexico,M,Open,100,1970-01-20,93.7,,,,,,185,192.5,-197.5,,192.5,,,,,,192.5,Single-ply,3,B
Phil Beniston,UK,M,Masters 40-44,100,1963-06-02,92.25,,,,,,145,155,165,,165,,,,,,165,Single-ply,1,B
Isaac Torres,Mexico,M,Masters 50-54,100,1952-06-03,98.2,,,,,,150,-155,160,,160,,,,,,160,Single-ply,1,B
Ken Williams #1,UK,M,Masters 55-59,100,1947-07-14,95.3,,,,,,135.5,142.5,,,142.5,,,,,,142.5,Single-ply,1,B
Lothar Hildebrandt,Germany,M,Masters 60-64,100,,94.9,,,,,,127.5,135,-142.5,,135,,,,,,135,Single-ply,1,B
Jason Quirk,Ireland,M,Juniors 20-23,110,,109.3,,,,,,210,220,227.5,,227.5,,,,,,227.5,Single-ply,1,B
Zywick Remiguzz,Poland,M,Juniors 20-23,110,,109.85,,,,,,-140,-140,,,,,,,,,,Single-ply,DQ,B
Carlos Quintana,Mexico,M,Open,110,1977-05-14,105.95,,,,,,-225,-225,-225,,,,,,,,,Single-ply,DQ,B
Dietz Mathias,Germany,M,Open,110,,105.45,,,,,,225,-235,-245,,225,,,,,,225,Single-ply,3,B
Micheal Gaerten,Germany,M,Open,110,,105.35,,,,,,-250,257.5,-265,,257.5,,,,,,257.5,Single-ply,1,B
Patrick Hofmann,Austria,M,Open,110,,104.55,,,,,,-170,-170,170,,170,,,,,,170,Single-ply,4,B
Raymond van Deventer,Netherlands,M,Open,110,1973-08-08,103.65,,,,,,220,230,237.5,,237.5,,,,,,237.5,Single-ply,2,B
Albert Hoekstra,Netherlands,M,Masters 40-44,110,1964-03-14,107.95,,,,,,200,215,-220,,215,,,,,,215,Single-ply,2,B
Tony Brown,UK,M,Masters 40-44,110,1962-11-25,105.85,,,,,,232.5,240,-245,,240,,,,,,240,Single-ply,1,B
Tony McDonagh,Ireland,M,Masters 40-44,110,,100.65,,,,,,110,120,125,,125,,,,,,125,Single-ply,3,B
Gerhard Holleitner,Austria,M,Masters 45-49,110,,109.85,,,,,,170,190,-210,,190,,,,,,190,Single-ply,1,B
Nigel Wilding,UK,M,Masters 50-54,110,1954-06-24,101.45,,,,,,160,170,,,170,,,,,,170,Single-ply,1,B
Jelle Heijdeman,Netherlands,M,Open,125,1980-12-30,117.05,,,,,,245,-255,-257.5,,245,,,,,,245,Single-ply,2,B
Rubén Hernández #2,Mexico,M,Open,140+,1969-07-05,150.4,,,,,,170,-180,180,,180,,,,,,180,Single-ply,3,B
Vico Ruck,Germany,M,Open,125,1974-12-26,120.3,,,,,,250,257.5,-265,,257.5,,,,,,257.5,Single-ply,1,B
Jaap Fahner,Netherlands,M,Masters 45-49,125,1961-05-04,119.2,,,,,,200,225,-240,,225,,,,,,225,Single-ply,1,B
Erick Butzelaar,Netherlands,M,Masters 50-54,125,1955-08-20,112.55,,,,,,120,150,170,,170,,,,,,170,Single-ply,1,B
Audrius Grusas,Lithuania,M,Open,140,1981-09-01,136.7,,,,,,205,210,,,210,,,,,,210,Single-ply,2,B
Duncan Tanner,UK,M,Open,140,1971-06-06,137.25,,,,,,215,230,-235,,230,,,,,,230,Single-ply,1,B
Ramon Palomino,Mexico,M,Juniors 20-23,140+,1985-03-28,143.75,,,,,,165,175,-200,,175,,,,,,175,Single-ply,3,B
Richard Fricker,UK,M,Masters 45-49,140+,1961-03-18,147.3,,,,,,175,182.5,187.5,,187.5,,,,,,187.5,Single-ply,1,B
