Name,Sex,Equipment,BodyweightKg,WeightClassKg,Division,Squat1Kg,Squat2Kg,Squat3Kg,Best3SquatKg,Bench1Kg,Bench2Kg,Bench3Kg,Best3BenchKg,Deadlift1Kg,Deadlift2Kg,Deadlift3Kg,Best3DeadliftKg,TotalKg,Event,Place
Shishir Sikder,M,Raw,58.1,59,M-C-Open,135,142.5,-150,142.5,85,87.5,90,90,175,185,-190,185,417.5,SBD,1
John Phillips,M,Raw,65.8,66,M-C-Open,175,185,192.5,192.5,112.5,117.5,120,120,202.5,215,220,220,532.5,SBD,1
Mahfuzur Rahman,M,Raw,64.55,66,M-C-Open,165,-172.5,172.5,172.5,92.5,97.5,102.5,102.5,187.5,-197.5,-197.5,187.5,462.5,SBD,2
Sean Maloney,M,Raw,65.45,66,M-C-Open,140,-150,150,150,90,95,-100,95,180,190,-200,190,435,SBD,3
Luke Rogers #1,M,Raw,73.45,74,M-C-Open,217.5,230,-235,230,120,125,130,130,245,260,265,265,625,SBD,1
Tim Baker,M,Raw,72.5,74,M-C-Open,190,200,-202.5,200,120,130,-135,130,220,-245,,220,550,SBD,2
Mark Hodgett,M,Raw,82.5,83,M-C-Open,-200,210,220,220,130,145,150,150,265,277.5,-285,277.5,647.5,SBD,1
Dan Ben-Chorin,M,Raw,82.35,83,M-C-Open,-215,215,-230,215,140,-147.5,147.5,147.5,235,250,265,265,627.5,SBD,2
Alex Burrell,M,Raw,82.8,83,M-C-Open,195,205,212.5,212.5,122.5,127.5,137.5,137.5,237.5,250,-262.5,250,600,SBD,3
Joshua Bosman,M,Raw,82.35,83,M-C-Open,170,180,190,190,125,132.5,137.5,137.5,247.5,262.5,270,270,597.5,SBD,4
Mahavira Sing,M,Raw,81.75,83,M-C-Open,200,210,-217.5,210,127.5,132.5,137.5,137.5,230,245,-250,245,592.5,SBD,5
Wassim Arsalani,M,Raw,77,83,M-C-Open,185,195,200,200,130,135,-140,135,-225,225,,225,560,SBD,6
Jamie Gee,M,Raw,80.65,83,M-C-Open,180,200,-210,200,135,145,-147.5,145,200,210,215,215,560,SBD,7
Adam Ferrett,M,Raw,79.15,83,M-C-Open,180,-190,-190,180,115,120,-125,120,240,250,-260,250,550,SBD,8
Jamie Sinclair,M,Raw,82.8,83,M-C-Open,172.5,180,185,185,137.5,145,150,150,200,212.5,-220,212.5,547.5,SBD,9
James Phillips,M,Raw,80.65,83,M-C-Open,170,180,-200,180,115,122.5,127.5,127.5,227.5,237.5,-247.5,237.5,545,SBD,10
John Corcoran,M,Raw,82.3,83,M-C-Open,190,197.5,-202.5,197.5,112.5,117.5,-120,117.5,210,225,-232.5,225,540,SBD,11
Robert Palmer #2,M,Single-ply,90.2,93,M-E-Open,250,,,250,250,-260,-265,250,280,290,295,295,795,SBD,1
Matt Watson,M,Single-ply,88.3,93,M-E-Open,240,255,-262.5,255,160,-170,170,170,200,215,227.5,227.5,652.5,SBD,2
Jeff Ocrah,M,Raw,92.3,93,M-C-Open,217.5,232.5,242.5,242.5,140,152.5,160,160,275,295,305,305,707.5,SBD,1
Jason Coultman,M,Raw,91.75,93,M-C-Open,237.5,247.5,-257.5,247.5,140,147.5,155,155,255,272.5,-287.5,272.5,675,SBD,2
Alex Whitmore,M,Raw,90.75,93,M-C-Open,215,227.5,-240,227.5,150,160,-165,160,230,240,255,255,642.5,SBD,3
Dean Collins,M,Raw,87.75,93,M-C-Open,-192.5,192.5,202.5,202.5,155,-162.5,162.5,162.5,255,262.5,267.5,267.5,632.5,SBD,4
Joe Marks,M,Raw,88.95,93,M-C-Open,180,200,212.5,212.5,112.5,120,,120,235,255,272.5,272.5,605,SBD,5
Andrew Barber,M,Raw,90.1,93,M-C-Open,195,205,210,210,150,155,160,160,215,225,230,230,600,SBD,6
Richard Thimbleby,M,Raw,91.85,93,M-C-Open,207.5,-217.5,217.5,217.5,-125,125,-132.5,125,220,230,235,235,577.5,SBD,7
Jason Hunton,M,Raw,92.35,93,M-C-Open,195,205,-215,205,140,147.5,150,150,195,205,220,220,575,SBD,8
Akin Makinde,M,Raw,92.15,93,M-C-Open,180,192.5,200,200,130,137.5,-142.5,137.5,235,-250,-250,235,572.5,SBD,9
Jan Jones,M,Raw,92,93,M-C-Open,185,-200,-200,185,130,137.5,-142.5,137.5,210,225,232.5,232.5,555,SBD,10
Chris Baldwin,M,Raw,92.05,93,M-C-Open,210,220,,220,130,150,-155,150,,,,,,SBD,DQ
Andrew Spiers,M,Raw,103.9,105,M-C-Open,220,235,-242.5,235,155,165,172.5,172.5,267.5,287.5,300,300,707.5,SBD,1
David Watkins #1,M,Raw,104.6,105,M-C-Open,225,-245,252.5,252.5,120,130,137.5,137.5,260,290,307.5,307.5,697.5,SBD,2
James Robson,M,Raw,103.8,105,M-C-Open,210,230,-240,230,150,165,-167.5,165,270,300,-305,300,695,SBD,3
Reece Smith,M,Raw,104.2,105,M-C-Open,230,240,-245,240,152.5,-160,-160,152.5,255,270,280,280,672.5,SBD,4
Craig Wolsey,M,Raw,99.7,105,M-C-Open,227.5,242.5,-250,242.5,160,167.5,170,170,255,-260,-260,255,667.5,SBD,5
Will Knowland,M,Raw,103.2,105,M-C-Open,-227.5,227.5,242.5,242.5,-152.5,152.5,-167.5,152.5,240,255,-270,255,650,SBD,6
Michael Goodwin,M,Raw,97.8,105,M-C-Open,215,217.5,-240,217.5,152.5,162.5,-172.5,162.5,247.5,260,-272.5,260,640,SBD,7
George Souter,M,Raw,100.4,105,M-C-Open,210,220,-225,220,160,165,-170,165,245,-255,255,255,640,SBD,8
Mike Roberts,M,Raw,104.4,105,M-C-Open,207.5,220,-225,220,145,152.5,155,155,247.5,262.5,-270,262.5,637.5,SBD,9
David Downs,M,Raw,102.5,105,M-C-Open,210,217.5,225,225,137.5,-145,145,145,245,255,260,260,630,SBD,10
George Seeger,M,Single-ply,101.2,105,M-E-Open,-260,-260,-260,,,,,,,,,,,SBD,DQ
Jon Askey,M,Single-ply,119,120,M-E-Open,260,-272.5,272.5,272.5,180,-187.5,-187.5,180,-260,260,270,270,722.5,SBD,1
Iain MacConnachie,M,Raw,113.3,120,M-C-Open,300,315,-330,315,180,190,192.5,192.5,270,290,,290,797.5,SBD,1
Daniel Lindsell,M,Raw,117.3,120,M-C-Open,230,242.5,250,250,180,190,195,195,280,-300,-300,280,725,SBD,2
Adam Berry,M,Raw,115.2,120,M-C-Open,250,260,-270,260,150,160,-162.5,160,250,260,270,270,690,SBD,3
Tom Shaw,M,Raw,118.3,120,M-C-Open,232.5,-242.5,242.5,242.5,135,-140,140,140,275,290,-302.5,290,672.5,SBD,4
Shane Flowers,M,Raw,117,120,M-C-Open,220,-230,-230,220,160,165,-167.5,165,270,285,-295,285,670,SBD,5
Christopher Farrow,M,Raw,117.7,120,M-C-Open,-225,225,240,240,150,-160,160,160,-250,-250,250,250,650,SBD,6
Ben Leyland,M,Raw,112.3,120,M-C-Open,195,210,217.5,217.5,125,-132.5,132.5,132.5,250,277.5,-295,277.5,627.5,SBD,7
Stuart Ackerman,M,Raw,112.6,120,M-C-Open,190,210,225,225,-137.5,-137.5,145,145,215,235,245,245,615,SBD,8
Asif Ahmed,M,Raw,131.5,120+,M-C-Open,265,275,285,285,150,160,-167.5,160,275,285,290,290,735,SBD,1
Mitchal Flowers,M,Raw,149.8,120+,M-C-Open,270,285,-300,285,-170,-170,170,170,280,-300,-300,280,735,SBD,2
Jonathan Challinor,M,Raw,125.3,120+,M-C-Open,215,230,-240,230,140,147.5,-155,147.5,240,260,-267.5,260,637.5,SBD,3
Ranbir Singh Sahota,M,Single-ply,126.1,120+,M-E-Open,360,-380,,360,-220,-220,,,,,,,,SBD,DQ
Jacob Melvin,M,Raw,56.3,59,M-C-U18,115,122.5,-125,122.5,75,-80,80,80,142.5,153,157.5,157.5,360,SBD,1
Luis Corbo,M,Raw,57.7,59,M-C-U18,115,120,-125,120,57.5,60,62.5,62.5,140,145,-150,145,327.5,SBD,2
Dave Brown #2,M,Raw,57.75,59,M-C-M3,80,87.5,90,90,67.5,70,-72.5,70,122.5,130,135,135,295,SBD,1
Ted Brown,M,Raw,56.25,59,M-C-M5,70,-75,-75,70,65,70,72.5,72.5,100,110,117.5,117.5,260,SBD,1
Declan Zimmermann,M,Raw,64.85,66,M-C-U18,160,167.5,171,171,92.5,97.5,100,100,210,223,229,229,500,SBD,1
Dominic King,M,Raw,64.9,66,M-C-U18,135,140,-145,140,-85,-85,-85,,180,190,-207.5,190,,SBD,DQ
Tom Chang,M,Raw,64.9,66,M-C-U23,160,170,175,175,117.5,126,-130,126,210,225,235,235,536,SBD,1
Roger Hamilton-Smith,M,Raw,64.4,66,M-C-M1,152.5,160,162.5,162.5,100,110,-112.5,110,195,210,215,215,487.5,SBD,1
Shaun Bateman,M,Raw,63.6,66,M-C-M1,150,155,-157.5,155,110,115,117.5,117.5,180,190,195,195,467.5,SBD,2
George White,M,Raw,73.5,74,M-C-U18,150,160,165,165,92.5,100,105,105,165,-175,175,175,445,SBD,1
Samuel Kuti,M,Raw,73.25,74,M-C-U18,140,-150,150,150,85,92.5,-97.5,92.5,175,-185,185,185,427.5,SBD,2
Dean Smith,M,Raw,72.35,74,M-C-U18,130,-132.5,-150,130,80,85,-90,85,150,160,170,170,385,SBD,3
Jack Suljevic,M,Raw,73.5,74,M-C-U23,210,220,-235.5,220,90,100,105,105,255,265,270.5,270.5,595.5,SBD,1
Samuel Stott,M,Raw,72.95,74,M-C-U23,192.5,195,205,205,105,115,-120,115,205,215,227.5,227.5,547.5,SBD,2
Jeremy Ocampo,M,Raw,72.95,74,M-C-U23,177.5,190,197.5,197.5,102.5,110,-112.5,110,205,220,232.5,232.5,540,SBD,3
Ben Johnson #7,M,Raw,71.2,74,M-C-U23,152.5,162.5,170,170,107.5,115,120,120,187.5,200,207.5,207.5,497.5,SBD,4
Ben Streatfield,M,Raw,71.3,74,M-C-U23,162.5,165,175,175,95,100,102.5,102.5,180,190,-202.5,190,467.5,SBD,5
Kyran O'Neill,M,Raw,70.85,74,M-C-U23,165,-170,-170,165,95,100,107.5,107.5,170,185,192.5,192.5,465,SBD,6
Alexander Burbridge,M,Raw,72.8,74,M-C-U23,147.5,155,160,160,105,110,-115,110,175,190,-200,190,460,SBD,7
Benjamin Cattermole,M,Raw,72.35,74,M-C-U23,-180,180,-190,180,117.5,-122.5,-122.5,117.5,-215,,,,,SBD,DQ
Ronan Bell,M,Raw,71.1,74,M-C-M1,145,160,-174,160,105,115,118,118,165,180,190,190,468,SBD,1
Mick Coopey,M,Raw,72.2,74,M-C-M2,160,-170,-177.5,160,95,100,105,105,170,185,-202.5,185,450,SBD,1
Hari Singh Cheema,M,Raw,73.6,74,M-C-M3,-160,170,180,180,102.5,110,115,115,185,200,-205,200,495,SBD,1
Alan Twigg,M,Raw,73.15,74,M-C-M3,90,-95,100,100,95,102.5,107.5,107.5,170,190,,190,397.5,SBD,2
Henry Clark,M,Raw,73.1,74,M-C-M4,110,-120,120,120,52.5,57.5,-60,57.5,140,-145,,140,317.5,SBD,1
Marshal Packer,M,Raw,80.9,83,M-C-U18,140,150,160,160,80,90,100,100,180,190,200,200,460,SBD,1
Will Potter,M,Raw,79.9,83,M-C-U18,135,140,150,150,80,82.5,-92.5,82.5,180,190,-200,190,422.5,SBD,2
Erik Mata,M,Raw,82.6,83,M-C-U23,225,237.5,-246,237.5,147.5,-155,155,155,240,-262.5,-265,240,632.5,SBD,1
Kristopher Franklin,M,Raw,82.25,83,M-C-U23,195,202.5,-210,202.5,132.5,137.5,-142.5,137.5,230,-245,250,250,590,SBD,2
James Vickers,M,Raw,78.8,83,M-C-U23,177.5,187.5,-197.5,187.5,127.5,135,142.5,142.5,215,-227.5,227.5,227.5,557.5,SBD,3
Ryan Truman,M,Raw,81.3,83,M-C-U23,-170,170,-175,170,105,112.5,120,120,220,230,-235,230,520,SBD,4
Frankie Dorrian,M,Raw,82.05,83,M-C-M1,170,182.5,190,190,95,97.5,102.5,102.5,190,202.5,207.5,207.5,500,SBD,1
David Clifford,M,Raw,82.15,83,M-C-M2,180,190,195,195,120,125,-127.5,125,225,235.5,-242.5,235.5,555.5,SBD,1
Mick Amey,M,Single-ply,81.7,83,M-E-M3,140,170,,170,100,105,,105,220,-241,-241,220,495,SBD,1
Bartosz Sujczynski,M,Raw,87.9,93,M-C-U18,137.5,147.5,-155,147.5,85,92.5,100,100,137.5,147.5,152.5,152.5,400,SBD,1
Will James,M,Raw,90.25,93,M-C-U23,222.5,235,245,245,125,-135,-135,125,260,270,-275,270,640,SBD,1
Craig Harris,M,Raw,90.8,93,M-C-U23,205,217.5,225,225,135,140,-145,140,235,-245,-245,235,600,SBD,2
Thomas Price,M,Raw,91.6,93,M-C-U23,200,207.5,-212.5,207.5,115,-120,-120,115,240,255,-267.5,255,577.5,SBD,3
Antonio Shinebourne,M,Raw,91.3,93,M-C-U23,200,210,-217.5,210,122.5,132.5,-137.5,132.5,220,232.5,-245,232.5,575,SBD,4
Jake Leach,M,Raw,91.1,93,M-C-U23,197.5,205,212.5,212.5,115,122.5,130,130,190,207.5,-212.5,207.5,550,SBD,5
Will Lewis,M,Raw,84.9,93,M-C-U23,-190,200,-210,200,120,-130,-130,120,210,220,-230,220,540,SBD,6
Conor Evans,M,Raw,90.8,93,M-C-U23,-180,180,195,195,102.5,112.5,-120,112.5,220,-232.5,232.5,232.5,540,SBD,7
Jaswinder Singh,M,Raw,92.95,93,M-C-M2,210,-230,235,235,150,160,-170,160,230,245,-257.5,245,640,SBD,1
Keith Blacknell,M,Raw,92.4,93,M-C-M2,167.5,180,-187.5,180,-115,115,-120,115,170,180,-182.5,180,475,SBD,2
Kevin Jane,M,Single-ply,92.2,93,M-E-M3,-245,245,-260,245,155,160,162.5,162.5,242.5,250,-257.5,250,657.5,SBD,1
Bradley May,M,Raw,103.85,105,M-C-U18,-215.5,-225,225,225,122.5,128,-132.5,128,240.5,255,-262.5,255,608,SBD,1
Liam Ward,M,Raw,101.7,105,M-C-U18,150,-160,160,160,90,-95,-95,90,180,190,200,200,450,SBD,2
Joshua Greenfield,M,Raw,104.1,105,M-C-U23,260,272.5,277.5,277.5,155,162.5,-165,162.5,250,265,275,275,715,SBD,1
Matthew Deacon-Smith,M,Raw,100.1,105,M-C-U23,240,-255,-255,240,-140,140,-145,140,270,300,-330.5,300,680,SBD,2
Frankie Parke,M,Raw,104.15,105,M-C-U23,220,240,,240,130,140,,140,220,240,,240,620,SBD,3
Joe Wicks,M,Raw,102.6,105,M-C-U23,205,215,217.5,217.5,145,155,-162.5,155,200,215,225,225,597.5,SBD,4
Thomas Celestin,M,Raw,99.15,105,M-C-M1,232.5,242.5,-247.5,242.5,125,127.5,130,130,287.5,313,-323,313,685.5,SBD,1
Tim Wheeler,M,Raw,102.85,105,M-C-M1,210,220,-227.5,220,110,115,117.5,117.5,245,-262.5,-262.5,245,582.5,SBD,2
Darren Lloyd,M,Raw,103.5,105,M-C-M1,167.5,-172.5,172.5,172.5,140,-145,-145,140,180,195,-205,195,507.5,SBD,3
Justin Green,M,Raw,99.35,105,M-C-M1,150,152.5,-172.5,152.5,100,110,117.5,117.5,-200,200,-217.5,200,470,SBD,4
Ross Cartwright,M,Raw,110.8,120,M-C-U18,190,200,-202.5,200,115,125,127.5,127.5,170,190,200,200,527.5,SBD,1
Balal Ahmed,M,Raw,106.4,120,M-C-U23,210,220,225,225,130,140,-147.5,140,265,282.5,-300,282.5,647.5,SBD,1
Ian Ryan,M,Raw,115.3,120,M-C-M1,175,190,-195,190,125,135,-142.5,135,180,200,210,210,535,SBD,1
Ian Finch,M,Raw,113.5,120,M-C-M2,165,175,180,180,110,117.5,120,120,200,210,,210,510,SBD,1
David Hughes #3,M,Raw,127.95,120+,M-C-U23,-270,287.5,300,300,-172.5,172.5,-185,172.5,300,327.5,340,340,812.5,SBD,1
Frazer Pennington,M,Raw,122.25,120+,M-C-U23,270,-290.5,-290.5,270,150,157.5,-162.5,157.5,250,262.5,-272.5,262.5,690,SBD,2
Nick Grundy,M,Raw,122.2,120+,M-C-M1,210,-220,220,220,140,145,150,150,210,220,230,230,600,SBD,1
Emily Przeslak,F,Raw,45.95,47,F-C-U23,75,82.5,-87.5,82.5,42.5,47.5,50,50,110,117.5,120,120,252.5,SBD,1
Imelda Flanagan,F,Raw,43.05,47,F-C-M2,67.5,70,72.5,72.5,37.5,40,,40,105,110,112.5,112.5,225,SBD,1
Marina Cornwall,F,Raw,43.5,47,F-C-M3,72.5,77.5,-80,77.5,45,-47.5,47.5,47.5,110,115,117.5,117.5,242.5,SBD,1
Louise Edwards #1,F,Single-ply,51.65,52,F-E-Open,135,143,147.5,147.5,67.5,70,-72.5,70,145,152.5,,152.5,370,SBD,1
Anastasia Dharma,F,Raw,50.3,52,F-C-U23,95,-102.5,102.5,102.5,47.5,50,52.5,52.5,120,-127.5,127.5,127.5,282.5,SBD,1
Louise Sinniah-Burr,F,Raw,51.2,52,F-C-Open,87.5,92.5,97.5,97.5,55,60,62.5,62.5,130,137.5,142.5,142.5,302.5,SBD,1
Michelle Trench,F,Raw,51.35,52,F-C-Open,-60,-60,60,60,40,-42.5,-42.5,40,120,-127.5,-127.5,120,220,SBD,2
Suzanne Richards,F,Raw,51.35,52,F-C-M1,77.5,82.5,-85,82.5,52.5,-55,-55,52.5,102.5,107.5,-110,107.5,242.5,SBD,1
Antonietta Moch,F,Raw,50.1,52,F-C-M1,67.5,75,80,80,-42.5,45,-50,45,105,-110,-110,105,230,SBD,2
Heather Eastlake,F,Raw,55.3,57,F-C-U23,82.5,87.5,-92.5,87.5,-45,47.5,50,50,105,110,112.5,112.5,250,SBD,1
Lauren Randall,F,Raw,55.8,57,F-C-U23,70,75,80,80,37.5,42.5,-45,42.5,100,110,117.5,117.5,240,SBD,2
Joy Nnamani,F,Raw,54.45,57,F-C-Open,127.5,135,,135,67.5,72.5,75,75,170,180.5,,180.5,390.5,SBD,1
Tania Franklin,F,Raw,56.3,57,F-C-Open,85,90,95,95,52.5,-55,-55,52.5,130,137.5,142.5,142.5,290,SBD,2
Michelle Franklin,F,Raw,56.1,57,F-C-M2,75,82.5,-90,82.5,50,52.5,-55,52.5,115,125,130,130,265,SBD,1
Faye Jordan,F,Single-ply,60.6,63,F-E-Open,120,127.5,132.5,132.5,100,,,100,120,130,140,140,372.5,SBD,1
Zoe Freeman,F,Raw,62.85,63,F-C-U23,100,110,-117.5,110,50,55,-57.5,55,125,130,137.5,137.5,302.5,SBD,1
Suzanne Goulder,F,Raw,61.3,63,F-C-U23,92.5,100,105,105,57.5,62.5,-65,62.5,117.5,125,132.5,132.5,300,SBD,2
Hui Teng Leow,F,Raw,62.5,63,F-C-U23,97.5,102.5,105,105,42.5,45,47.5,47.5,107.5,115,120,120,272.5,SBD,3
Leah Grant,F,Raw,61.75,63,F-C-Open,125,130,135,135,62.5,67.5,-70,67.5,142.5,150,155,155,357.5,SBD,1
Yasmina Couty,F,Raw,61.7,63,F-C-Open,100,107.5,-115,107.5,42.5,47.5,-52.5,47.5,135,145,150,150,305,SBD,2
Louise Nordén,F,Raw,62.6,63,F-C-Open,107.5,-115,-115,107.5,72.5,77.5,80,80,-117.5,117.5,-120,117.5,305,SBD,3
Lauren-May Drake,F,Raw,61.35,63,F-C-Open,87.5,92.5,95,95,47.5,52.5,55,55,135,145,150,150,300,SBD,4
Christine Hook,F,Raw,62,63,F-C-Open,105,-115,115,115,50,55,57.5,57.5,120,127.5,-132.5,127.5,300,SBD,5
Khrys Kyriacou,F,Raw,62.4,63,F-C-M1,127.5,135,-140,135,75,80,82.5,82.5,130,135,,135,352.5,SBD,1
Paula Gentle,F,Raw,61,63,F-C-M1,80,-90,90,90,-47.5,50,52.5,52.5,125,135,-140,135,277.5,SBD,2
Alexandra Jackson,F,Raw,71.3,72,F-C-U18,112.5,120,125,125,52.5,57.5,60,60,145,155,160.5,160.5,345.5,SBD,1
Deanna Dawkins,F,Raw,70.05,72,F-C-U18,-110,-110,110,110,52.5,55,-57.5,55,115,127.5,137.5,137.5,302.5,SBD,2
Elise Davies,F,Raw,71.2,72,F-C-U23,120,130,-137.5,130,65,-70,-70,65,150,157.5,162.5,162.5,357.5,SBD,1
Lauren Hunt,F,Raw,67.85,72,F-C-U23,100,110,-120,110,-60,60,-65,60,140,150,160,160,330,SBD,2
Megan Davies,F,Raw,68.95,72,F-C-U23,105,112.5,-117.5,112.5,65,70,-72.5,70,140,-150,-150,140,322.5,SBD,3
Louise Richardson,F,Raw,70.45,72,F-C-Open,147.5,155,162.5,162.5,72.5,75,77.5,77.5,160,170,175,175,415,SBD,1
Diana Maylinger,F,Raw,69.85,72,F-C-Open,120,130,135,135,62.5,67.5,72.5,72.5,135,142.5,147.5,147.5,355,SBD,2
Katherine White,F,Raw,71.35,72,F-C-Open,120,127.5,-130,127.5,60,65,-67.5,65,145,-155,155,155,347.5,SBD,3
Nina Cambatta,F,Raw,69.1,72,F-C-Open,117.5,-125,-127.5,117.5,65,70,72.5,72.5,155,-162.5,-165,155,345,SBD,4
Emily Louise Williams,F,Raw,70.35,72,F-C-Open,120,130,135,135,50,55,60,60,127.5,137.5,145,145,340,SBD,5
Kimberley Cowell,F,Raw,70.5,72,F-C-Open,110,115,-120,115,65,67.5,-70,67.5,145,150,155,155,337.5,SBD,6
Florence Walton,F,Raw,70.55,72,F-C-Open,112.5,120,127.5,127.5,55,60,62.5,62.5,125,135,145,145,335,SBD,7
Louise Burden,F,Raw,70.95,72,F-C-Open,110,120,-122.5,120,57.5,62.5,-65,62.5,135,145,152.5,152.5,335,SBD,8
Lottie Hall,F,Raw,70.05,72,F-C-Open,100,110,-115,110,47.5,-55,-55,47.5,120,-127.5,127.5,127.5,285,SBD,9
Prudence Catley,F,Raw,68.95,72,F-C-Open,-100,-100,-100,,60,62.5,-67.5,62.5,135,140,-142.5,140,,SBD,DQ
Karen Fynn,F,Raw,71.35,72,F-C-M1,75,82.5,85,85,42.5,47.5,-50,47.5,110,120,125,125,257.5,SBD,1
Gloria Fitzpatrick,F,Raw,70.35,72,F-C-M2,95,105,-107.5,105,52.5,-55,55,55,120,130,135,135,295,SBD,1
Helen Winter,F,Raw,68.4,72,F-C-M2,85,92.5,97.5,97.5,42.5,-50,50,50,117.5,125,130,130,277.5,SBD,2
Karen Evans,F,Raw,80.6,84,F-C-M1,85,90,-97.5,90,52.5,-57.5,-57.5,52.5,107.5,112.5,-115,112.5,255,SBD,1
Christie Civetta,F,Single-ply,79.5,84,F-E-Open,-190,190,197.5,197.5,112.5,-117.5,-117.5,112.5,160,170,177.5,177.5,487.5,SBD,1
Shasha Bowers,F,Single-ply,79.25,84,F-E-Open,135,142.5,147.5,147.5,-65,65,-70,65,110,120,-130,120,332.5,SBD,2
Helen Toms,F,Single-ply,83.45,84,F-E-M2,-145,-145,145,145,80,-82.5,82.5,82.5,150,157.5,-162.5,157.5,385,SBD,1
Chrystal Williams,F,Raw,81.65,84,F-C-U23,165,-175,-175,165,80,87.5,-92.5,87.5,195,205,-215,205,457.5,SBD,1
Aimee Carver,F,Raw,78.2,84,F-C-U23,80,85,90,90,40,42.5,45,45,102.5,110,115,115,250,SBD,2
Sheri Miles,F,Raw,75.45,84,F-C-Open,135,145,150,150,-72.5,75,80,80,170,190,200,200,430,SBD,1
Megan Batchelor,F,Raw,80.9,84,F-C-Open,107.5,117.5,125,125,82.5,90,-92.5,90,135,-145,145,145,360,SBD,2
Radha Balani,F,Raw,83.35,84,F-C-Open,115,120,122.5,122.5,55,57.5,-60,57.5,127.5,137.5,-145,137.5,317.5,SBD,3
Charlie Shotton-Gale,F,Single-ply,84.15,84+,F-E-Open,200,-215,-222.5,200,140,147.5,150,150,190,-205,205,205,555,SBD,1
Charlie Chester,F,Raw,89.75,84+,F-C-U23,150,157.5,-165.5,157.5,75,82.5,85,85,160,170,-176,170,412.5,SBD,1
Laura Berry-Webb,F,Raw,100.35,84+,F-C-Open,142.5,152.5,160,160,95,100,102.5,102.5,145,157.5,165,165,427.5,SBD,1
Jana Jackunaite,F,Raw,91.45,84+,F-C-Open,132.5,140,145,145,65,-70,70,70,130,140,147.5,147.5,362.5,SBD,2
Sarah Marsden,F,Raw,106.45,84+,F-C-M1,152.5,-160.5,160.5,160.5,77.5,82.5,-87.5,82.5,140,147.5,157.5,157.5,400.5,SBD,1
